%!Adobe-FontList 1.20
%Locale:0x409

%BeginFont
Handler:DirectoryHandler
FontType:Type1
FontName:FuturaStd-Bold
FamilyName:Futura Std
StyleName:Bold
MenuName:Futura Std Book
StyleBits:2
WeightClass:700
WidthClass:5
AngleClass:0
FullName:Futura Std Bold
WritingScript:Roman
OutlineFileName:/Users/graphic/Desktop/Cartella FRONT END BOOKING ENGINE HOTEL/Document fonts/FuturaStd-Bold.otf
DataFormat:sfntData
UsesStandardEncoding:yes
isCFF:yes
hasSVG:no
VariableFontType:NonVariableFont
FileLength:26900
FileModTime:563371450
NameArray:0,Mac,4,Futura Std Bold
NameArray:0,Win,1,Futura Std Book
NameArray:0,Win,16,Futura Std
%EndFont

%BeginFont
Handler:DirectoryHandler
FontType:Type1
FontName:FuturaStd-Book
FamilyName:Futura Std
StyleName:Book
MenuName:Futura Std Book
StyleBits:0
WeightClass:400
WidthClass:5
AngleClass:0
FullName:Futura Std Book
WritingScript:Roman
OutlineFileName:/Users/graphic/Desktop/Cartella FRONT END BOOKING ENGINE HOTEL/Document fonts/FuturaStd-Book.otf
DataFormat:sfntData
UsesStandardEncoding:yes
isCFF:yes
hasSVG:no
VariableFontType:NonVariableFont
FileLength:25708
FileModTime:563371450
NameArray:0,Mac,4,Futura Std Book
NameArray:0,Win,1,Futura Std Book
NameArray:0,Win,16,Futura Std
%EndFont

%BeginFont
Handler:DirectoryHandler
FontType:Type1
FontName:FuturaStd-ExtraBold
FamilyName:Futura Std
StyleName:Extra Bold
MenuName:Futura Std ExtraBold
StyleBits:0
WeightClass:750
WidthClass:5
AngleClass:0
FullName:Futura Std Extra Bold
WritingScript:Roman
OutlineFileName:/Users/graphic/Desktop/Cartella FRONT END BOOKING ENGINE HOTEL/Document fonts/FuturaStd-ExtraBold.otf
DataFormat:sfntData
UsesStandardEncoding:yes
isCFF:yes
hasSVG:no
VariableFontType:NonVariableFont
FileLength:27736
FileModTime:563371450
NameArray:0,Mac,18,Futura Std ExtraBold
NameArray:0,Mac,4,Futura Std Extra Bold
NameArray:0,Win,1,Futura Std ExtraBold
NameArray:0,Win,16,Futura Std
%EndFont

%BeginFont
Handler:DirectoryHandler
FontType:TrueType
FontName:Helvetica
FamilyName:Helvetica
StyleName:Regular
MenuName:Helvetica
StyleBits:0
WeightClass:400
WidthClass:5
AngleClass:0
FullName:Helvetica
WritingScript:Roman
OutlineFileName:/Users/graphic/Desktop/Cartella FRONT END BOOKING ENGINE HOTEL/Document fonts/Helvetica.ttc
TTCOffset:48
DataFormat:sfntData
hasSVG:no
VariableFontType:NonVariableFont
FileLength:2319952
FileModTime:563371450
NameArray:0,Mac,18,Helvetica
NameArray:0,Mac,4,Helvetica
%EndFont

%BeginFont
Handler:DirectoryHandler
FontType:TrueType
FontName:Helvetica-Bold
FamilyName:Helvetica
StyleName:Bold
MenuName:Helvetica
StyleBits:2
WeightClass:700
WidthClass:5
AngleClass:0
FullName:Helvetica Bold
WritingScript:Roman
OutlineFileName:/Users/graphic/Desktop/Cartella FRONT END BOOKING ENGINE HOTEL/Document fonts/Helvetica.ttc
TTCOffset:380
DataFormat:sfntData
hasSVG:no
VariableFontType:NonVariableFont
FileLength:2319952
FileModTime:563371450
NameArray:0,Mac,4,Helvetica Bold
NameArray:0,Mac,4,Helvetica lihava
NameArray:0,Mac,4,Helvetica Gras
NameArray:0,Mac,4,Helvetica Fett
NameArray:0,Mac,4,Helvetica grassetto
NameArray:0,Mac,4,Helvetica vet
NameArray:0,Mac,4,Helvetica Fet
NameArray:0,Mac,4,Helvetica Negrita
NameArray:0,Mac,4,Helvetica Carregado
NameArray:0,Mac,4,Helvetica Halvfet
NameArray:0,Mac,18,Helvetica Bold
NameArray:4,Mac,4,Helvetica‭ ‬أسود
NameArray:4,Mac,4,Helvetica‭ ‬برجسته
NameArray:5,Mac,4,Helvetica‭ ‬עבה
%EndFont

%BeginFont
Handler:DirectoryHandler
FontType:TrueType
FontName:Helvetica-Oblique
FamilyName:Helvetica
StyleName:Oblique
MenuName:Helvetica
StyleBits:1
WeightClass:400
WidthClass:5
AngleClass:1
FullName:Helvetica Oblique
WritingScript:Roman
OutlineFileName:/Users/graphic/Desktop/Cartella FRONT END BOOKING ENGINE HOTEL/Document fonts/Helvetica.ttc
TTCOffset:712
DataFormat:sfntData
hasSVG:no
VariableFontType:NonVariableFont
FileLength:2319952
FileModTime:563371450
NameArray:0,Mac,18,Helvetica Oblique
NameArray:0,Mac,4,Helvetica Oblique
%EndFont

%BeginFont
Handler:DirectoryHandler
FontType:TrueType
FontName:Helvetica-BoldOblique
FamilyName:Helvetica
StyleName:Bold Oblique
MenuName:Helvetica
StyleBits:3
WeightClass:700
WidthClass:5
AngleClass:1
FullName:Helvetica Bold Oblique
WritingScript:Roman
OutlineFileName:/Users/graphic/Desktop/Cartella FRONT END BOOKING ENGINE HOTEL/Document fonts/Helvetica.ttc
TTCOffset:1044
DataFormat:sfntData
hasSVG:no
VariableFontType:NonVariableFont
FileLength:2319952
FileModTime:563371450
NameArray:0,Mac,18,Helvetica Bold Oblique
NameArray:0,Mac,4,Helvetica Bold Oblique
%EndFont

%BeginFont
Handler:DirectoryHandler
FontType:TrueType
FontName:Helvetica-Light
FamilyName:Helvetica
StyleName:Light
MenuName:Helvetica
StyleBits:0
WeightClass:300
WidthClass:5
AngleClass:0
FullName:Helvetica Light
WritingScript:Roman
OutlineFileName:/Users/graphic/Desktop/Cartella FRONT END BOOKING ENGINE HOTEL/Document fonts/Helvetica.ttc
TTCOffset:1376
DataFormat:sfntData
hasSVG:no
VariableFontType:NonVariableFont
FileLength:2319952
FileModTime:563371450
NameArray:0,Mac,18,Helvetica Light
NameArray:0,Mac,4,Helvetica Light
%EndFont

%BeginFont
Handler:DirectoryHandler
FontType:TrueType
FontName:Helvetica-LightOblique
FamilyName:Helvetica
StyleName:Light Oblique
MenuName:Helvetica
StyleBits:1
WeightClass:300
WidthClass:5
AngleClass:1
FullName:Helvetica Light Oblique
WritingScript:Roman
OutlineFileName:/Users/graphic/Desktop/Cartella FRONT END BOOKING ENGINE HOTEL/Document fonts/Helvetica.ttc
TTCOffset:1676
DataFormat:sfntData
hasSVG:no
VariableFontType:NonVariableFont
FileLength:2319952
FileModTime:563371450
NameArray:0,Mac,18,Helvetica Light Oblique
NameArray:0,Mac,4,Helvetica Light Oblique
%EndFont

%BeginFont
Handler:DirectoryHandler
FontType:Type1
FontName:MinionPro-Regular
FamilyName:Minion Pro
StyleName:Regular
MenuName:Minion Pro
StyleBits:0
WeightClass:400
WidthClass:5
AngleClass:0
FullName:Minion Pro
WritingScript:Roman
OutlineFileName:/Users/graphic/Desktop/Cartella FRONT END BOOKING ENGINE HOTEL/Document fonts/MinionPro-Regular.otf
DataFormat:sfntData
UsesStandardEncoding:yes
isCFF:yes
hasSVG:no
VariableFontType:NonVariableFont
FileLength:218640
FileModTime:563371450
DesignSize:110
NameArray:0,Mac,4,Minion Pro
NameArray:0,Win,1,Minion Pro
%EndFont

%BeginFont
Handler:DirectoryHandler
FontType:Type1
FontName:Museo300-Regular
FamilyName:Museo
StyleName:300
MenuName:Museo 300
StyleBits:0
WeightClass:400
WidthClass:5
AngleClass:0
FullName:Museo 300 Regular
WritingScript:Roman
OutlineFileName:/Users/graphic/Desktop/Cartella FRONT END BOOKING ENGINE HOTEL/Document fonts/Museo 300.otf
DataFormat:sfntData
UsesStandardEncoding:yes
isCFF:yes
hasSVG:no
VariableFontType:NonVariableFont
FileLength:127152
FileModTime:563371450
NameArray:0,Mac,4,Museo 300 Regular
NameArray:0,Win,1,Museo 300
NameArray:0,Win,16,Museo
%EndFont

%BeginFont
Handler:DirectoryHandler
FontType:Type1
FontName:Museo500-Regular
FamilyName:Museo
StyleName:500
MenuName:Museo 500
StyleBits:0
WeightClass:500
WidthClass:5
AngleClass:0
FullName:Museo 500 Regular
WritingScript:Roman
OutlineFileName:/Users/graphic/Desktop/Cartella FRONT END BOOKING ENGINE HOTEL/Document fonts/Museo 500.otf
DataFormat:sfntData
UsesStandardEncoding:yes
isCFF:yes
hasSVG:no
VariableFontType:NonVariableFont
FileLength:128224
FileModTime:563371450
NameArray:0,Mac,4,Museo 500 Regular
NameArray:0,Win,1,Museo 500
NameArray:0,Win,16,Museo
%EndFont

%BeginFont
Handler:DirectoryHandler
FontType:Type1
FontName:Museo-700
FamilyName:Museo
StyleName:700
MenuName:Museo 700
StyleBits:0
WeightClass:600
WidthClass:5
AngleClass:0
FullName:Museo 700
WritingScript:Roman
OutlineFileName:/Users/graphic/Desktop/Cartella FRONT END BOOKING ENGINE HOTEL/Document fonts/Museo 700.otf
DataFormat:sfntData
UsesStandardEncoding:yes
isCFF:yes
hasSVG:no
VariableFontType:NonVariableFont
FileLength:129080
FileModTime:563371450
NameArray:0,Mac,4,Museo 700
NameArray:0,Win,1,Museo 700
NameArray:0,Win,16,Museo
%EndFont

%BeginFont
Handler:DirectoryHandler
FontType:Type1
FontName:Museo900-Regular
FamilyName:Museo
StyleName:900
MenuName:Museo 900
StyleBits:0
WeightClass:900
WidthClass:5
AngleClass:0
FullName:Museo 900 Regular
WritingScript:Roman
OutlineFileName:/Users/graphic/Desktop/Cartella FRONT END BOOKING ENGINE HOTEL/Document fonts/Museo900-Regular.otf
DataFormat:sfntData
UsesStandardEncoding:yes
isCFF:yes
hasSVG:no
VariableFontType:NonVariableFont
FileLength:129216
FileModTime:563371450
NameArray:0,Mac,4,Museo 900 Regular
NameArray:0,Win,1,Museo 900
NameArray:0,Win,16,Museo
%EndFont

%BeginFont
Handler:DirectoryHandler
FontType:TrueType
FontName:ZapfDingbatsITC
FamilyName:Zapf Dingbats
StyleName:Regular
MenuName:Zapf Dingbats
StyleBits:0
WeightClass:400
WidthClass:5
AngleClass:0
FullName:Zapf Dingbats
WritingScript:Roman
OutlineFileName:/Users/graphic/Desktop/Cartella FRONT END BOOKING ENGINE HOTEL/Document fonts/ZapfDingbats.ttf
DataFormat:sfntData
hasSVG:no
VariableFontType:NonVariableFont
FileLength:156088
FileModTime:563371450
NameArray:0,Mac,4,Zapf Dingbats
%EndFont

